JSON.c:11:6:json_parse	40	static
JSON.c:68:6:json_clear	8	static
JSON.c:73:6:_json_print_virgula	16	static
JSON.c:81:6:json_insertStr	128	static
JSON.c:90:6:json_insertInt	120	static
JSON.c:96:6:json_openContainerStr	120	static
JSON.c:107:6:json_openContainer	112	static
JSON.c:118:6:json_closeContainer	8	static
JSON.c:122:6:json_openMatrixStr	120	static
JSON.c:133:6:json_openMatrix	112	static
JSON.c:144:6:json_closeMatrix	8	static
JSON.c:149:6:json_open	8	static
JSON.c:153:6:json_close	8	static
